(lp0
(I144
I348
tp1
a(I201
I236
tp2
a(I399
I244
tp3
a(I441
I352
tp4
a(I365
I351
tp5
a(I236
I352
tp6
a(I164
I445
tp7
a(I297
I421
tp8
a(I435
I439
tp9
a(I368
I474
tp10
a(I239
I479
tp11
a(I186
I515
tp12
a(I290
I578
tp13
a(I412
I514
tp14
a.